[{
    "userid": "nshow",
    "firstName": "Nicole",
    "middleName": "Smith",
    "lastName": "Show",
    "email": "nicoles@att.com",
    "telephoneNumber": "+12025201528",

    "features": {
        "extensionMobility": true,
        "singleNumberReach": true,
        "voicemail": true
    },
    "devices": [{
        "name": "SEP5067AEE0BADB",
        "deviceType": "Cisco 8841",
        "protocol": "SIP",
        "buttonTemplate": "Standard 8841 SIP",
        "callingSearchSpace": "ATT-CSS",
        "devicePoolName": "ATT-PHDP",
        "enableExtensionMobility": true,
        "lines": [{
            "index": 1,
            "directoryNumber": "1528",
            "description": "Nicole Show",
            "routePartitionName": "ATT-INTERNAL",
            "alertingName": "Nicole Show",
            "asciiAlertingName": "Nicole Show",
            "voiceMailProfile": "VM-1",
            "noAnswerRingDuration": 40,
            "forwardAll": null,
            "forwardBusyInternal": {
                "voiceMail": "true"
            },
            "forwardBusyExternal": {
                "destination": "+97255442967",
                "callingSearchSpace": "ATT-EXT"
            },
            "forwardNoAnswerInternal": {
                "voiceMail": "true"
            },
            "forwardNoAnswerExternal": null,
            "forwardNoCoverageInternal": null,
            "forwardNoCoverageExternal": null,
            "forwardOnCTIFailure": null,
            "forwardUnregisteredInternal": null,
            "forwardUnregisteredExternal": null
        }]
    }],
    "singleNumberReach" : {
        "destination": "+972545442968",
        "answerTooSoonTimer": 900,
        "answerTooLateTimer": 1900,
        "delayBeforeRingingCell": 400
    },
    "extensionMobility": {
        "deviceType": "Cisco 6945"
    }
}]
